<svg width="45" height="45" viewBox="0 0 45 45" fill="none" xmlns="http://www.w3.org/2000/svg">
<path d="M35.1562 14.0625V5.625C35.1562 5.43852 35.0822 5.25968 34.9503 5.12782C34.8184 4.99595 34.6396 4.92188 34.4531 4.92188H16.1719C15.9854 4.92188 15.8066 4.99595 15.6747 5.12782C15.5428 5.25968 15.4688 5.43852 15.4688 5.625V14.0625C15.4688 14.249 15.5428 14.4278 15.6747 14.5597C15.8066 14.6915 15.9854 14.7656 16.1719 14.7656H34.4531C34.6396 14.7656 34.8184 14.6915 34.9503 14.5597C35.0822 14.4278 35.1562 14.249 35.1562 14.0625ZM33.75 13.3594H16.875V6.32812H33.75V13.3594Z" fill=""/>
<path d="M5.625 33.0469C5.06556 33.0469 4.52903 33.2691 4.13345 33.6647C3.73786 34.0603 3.51562 34.5968 3.51562 35.1562C3.51562 35.7157 3.73786 36.2522 4.13345 36.6478C4.52903 37.0434 5.06556 37.2656 5.625 37.2656H6.32812V40.0781C6.32917 41.0102 6.6999 41.9038 7.35898 42.5629C8.01806 43.222 8.91167 43.5927 9.84375 43.5938H40.7812C40.9677 43.5938 41.1466 43.5197 41.2784 43.3878C41.4103 43.2559 41.4844 43.0771 41.4844 42.8906V3.51562C41.4844 3.32914 41.4103 3.1503 41.2784 3.01844C41.1466 2.88658 40.9677 2.8125 40.7812 2.8125H38.6719V2.10938C38.6719 1.92289 38.5978 1.74405 38.4659 1.61219C38.3341 1.48033 38.1552 1.40625 37.9688 1.40625H7.03125C6.84477 1.40625 6.66593 1.48033 6.53407 1.61219C6.4022 1.74405 6.32812 1.92289 6.32812 2.10938V4.92188H5.625C5.06556 4.92188 4.52903 5.14411 4.13345 5.5397C3.73786 5.93528 3.51562 6.47181 3.51562 7.03125C3.51562 7.59069 3.73786 8.12722 4.13345 8.5228C4.52903 8.91839 5.06556 9.14062 5.625 9.14062H6.32812V11.9531H5.625C5.06556 11.9531 4.52903 12.1754 4.13345 12.5709C3.73786 12.9665 3.51562 13.5031 3.51562 14.0625C3.51562 14.6219 3.73786 15.1585 4.13345 15.5541C4.52903 15.9496 5.06556 16.1719 5.625 16.1719H6.32812V18.9844H5.625C5.06556 18.9844 4.52903 19.2066 4.13345 19.6022C3.73786 19.9978 3.51562 20.5343 3.51562 21.0938C3.51562 21.6532 3.73786 22.1897 4.13345 22.5853C4.52903 22.9809 5.06556 23.2031 5.625 23.2031H6.32812V26.0156H5.625C5.06556 26.0156 4.52903 26.2379 4.13345 26.6334C3.73786 27.029 3.51562 27.5656 3.51562 28.125C3.51562 28.6844 3.73786 29.221 4.13345 29.6166C4.52903 30.0121 5.06556 30.2344 5.625 30.2344H6.32812V33.0469H5.625ZM4.92188 35.1562C4.92208 34.9698 4.99623 34.7911 5.12805 34.6593C5.25986 34.5275 5.43858 34.4533 5.625 34.4531H8.4375C8.62398 34.4531 8.80282 34.5272 8.93468 34.6591C9.06655 34.7909 9.14062 34.9698 9.14062 35.1562C9.14062 35.3427 9.06655 35.5216 8.93468 35.6534C8.80282 35.7853 8.62398 35.8594 8.4375 35.8594H5.625C5.43858 35.8592 5.25986 35.785 5.12805 35.6532C4.99623 35.5214 4.92208 35.3427 4.92188 35.1562ZM13.3594 2.8125H37.2656V39.375H13.3594V2.8125ZM37.9688 40.7812C38.1552 40.7812 38.3341 40.7072 38.4659 40.5753C38.5978 40.4434 38.6719 40.2646 38.6719 40.0781V4.21875H40.0781V42.1875H9.84375C9.40771 42.1869 8.98253 42.0515 8.62652 41.7997C8.27052 41.5479 8.00113 41.1922 7.85531 40.7812H37.9688ZM5.625 7.73438C5.43852 7.73438 5.25968 7.6603 5.12782 7.52843C4.99595 7.39657 4.92188 7.21773 4.92188 7.03125C4.92188 6.84477 4.99595 6.66593 5.12782 6.53407C5.25968 6.4022 5.43852 6.32812 5.625 6.32812H8.4375C8.62398 6.32812 8.80282 6.4022 8.93468 6.53407C9.06655 6.66593 9.14062 6.84477 9.14062 7.03125C9.14062 7.21773 9.06655 7.39657 8.93468 7.52843C8.80282 7.6603 8.62398 7.73438 8.4375 7.73438H5.625ZM4.92188 14.0625C4.92208 13.8761 4.99623 13.6974 5.12805 13.5655C5.25986 13.4337 5.43858 13.3596 5.625 13.3594H8.4375C8.62398 13.3594 8.80282 13.4335 8.93468 13.5653C9.06655 13.6972 9.14062 13.876 9.14062 14.0625C9.14062 14.249 9.06655 14.4278 8.93468 14.5597C8.80282 14.6915 8.62398 14.7656 8.4375 14.7656H5.625C5.43858 14.7654 5.25986 14.6913 5.12805 14.5595C4.99623 14.4276 4.92208 14.2489 4.92188 14.0625ZM4.92188 21.0938C4.92208 20.9073 4.99623 20.7286 5.12805 20.5968C5.25986 20.465 5.43858 20.3908 5.625 20.3906H8.4375C8.62398 20.3906 8.80282 20.4647 8.93468 20.5966C9.06655 20.7284 9.14062 20.9073 9.14062 21.0938C9.14062 21.2802 9.06655 21.4591 8.93468 21.5909C8.80282 21.7228 8.62398 21.7969 8.4375 21.7969H5.625C5.43858 21.7967 5.25986 21.7225 5.12805 21.5907C4.99623 21.4589 4.92208 21.2802 4.92188 21.0938ZM4.92188 28.125C4.92208 27.9386 4.99623 27.7599 5.12805 27.628C5.25986 27.4962 5.43858 27.4221 5.625 27.4219H8.4375C8.62398 27.4219 8.80282 27.496 8.93468 27.6278C9.06655 27.7597 9.14062 27.9385 9.14062 28.125C9.14062 28.3115 9.06655 28.4903 8.93468 28.6222C8.80282 28.754 8.62398 28.8281 8.4375 28.8281H5.625C5.43858 28.8279 5.25986 28.7538 5.12805 28.622C4.99623 28.4901 4.92208 28.3114 4.92188 28.125ZM7.73438 30.2344H8.4375C8.99694 30.2344 9.53347 30.0121 9.92905 29.6166C10.3246 29.221 10.5469 28.6844 10.5469 28.125C10.5469 27.5656 10.3246 27.029 9.92905 26.6334C9.53347 26.2379 8.99694 26.0156 8.4375 26.0156H7.73438V23.2031H8.4375C8.99694 23.2031 9.53347 22.9809 9.92905 22.5853C10.3246 22.1897 10.5469 21.6532 10.5469 21.0938C10.5469 20.5343 10.3246 19.9978 9.92905 19.6022C9.53347 19.2066 8.99694 18.9844 8.4375 18.9844H7.73438V16.1719H8.4375C8.99694 16.1719 9.53347 15.9496 9.92905 15.5541C10.3246 15.1585 10.5469 14.6219 10.5469 14.0625C10.5469 13.5031 10.3246 12.9665 9.92905 12.5709C9.53347 12.1754 8.99694 11.9531 8.4375 11.9531H7.73438V9.14062H8.4375C8.99694 9.14062 9.53347 8.91839 9.92905 8.5228C10.3246 8.12722 10.5469 7.59069 10.5469 7.03125C10.5469 6.47181 10.3246 5.93528 9.92905 5.5397C9.53347 5.14411 8.99694 4.92188 8.4375 4.92188H7.73438V2.8125H11.9531V39.375H7.73438V37.2656H8.4375C8.99694 37.2656 9.53347 37.0434 9.92905 36.6478C10.3246 36.2522 10.5469 35.7157 10.5469 35.1562C10.5469 34.5968 10.3246 34.0603 9.92905 33.6647C9.53347 33.2691 8.99694 33.0469 8.4375 33.0469H7.73438V30.2344Z" fill=""/>
<path d="M28.125 35.8594H26.7188C26.5323 35.8594 26.3534 35.9335 26.2216 36.0653C26.0897 36.1972 26.0156 36.376 26.0156 36.5625C26.0156 36.749 26.0897 36.9278 26.2216 37.0597C26.3534 37.1915 26.5323 37.2656 26.7188 37.2656H28.125C28.3115 37.2656 28.4903 37.1915 28.6222 37.0597C28.754 36.9278 28.8281 36.749 28.8281 36.5625C28.8281 36.376 28.754 36.1972 28.6222 36.0653C28.4903 35.9335 28.3115 35.8594 28.125 35.8594Z" fill=""/>
<path d="M28.125 33.0469H26.7188C26.5323 33.0469 26.3534 33.121 26.2216 33.2528C26.0897 33.3847 26.0156 33.5635 26.0156 33.75C26.0156 33.9365 26.0897 34.1153 26.2216 34.2472C26.3534 34.379 26.5323 34.4531 26.7188 34.4531H28.125C28.3115 34.4531 28.4903 34.379 28.6222 34.2472C28.754 34.1153 28.8281 33.9365 28.8281 33.75C28.8281 33.5635 28.754 33.3847 28.6222 33.2528C28.4903 33.121 28.3115 33.0469 28.125 33.0469Z" fill=""/>
<path d="M35.1562 35.8594H30.9375C30.751 35.8594 30.5722 35.9335 30.4403 36.0653C30.3085 36.1972 30.2344 36.376 30.2344 36.5625C30.2344 36.749 30.3085 36.9278 30.4403 37.0597C30.5722 37.1915 30.751 37.2656 30.9375 37.2656H35.1562C35.3427 37.2656 35.5216 37.1915 35.6534 37.0597C35.7853 36.9278 35.8594 36.749 35.8594 36.5625C35.8594 36.376 35.7853 36.1972 35.6534 36.0653C35.5216 35.9335 35.3427 35.8594 35.1562 35.8594Z" fill=""/>
<path d="M35.1562 33.0469H30.9375C30.751 33.0469 30.5722 33.121 30.4403 33.2528C30.3085 33.3847 30.2344 33.5635 30.2344 33.75C30.2344 33.9365 30.3085 34.1153 30.4403 34.2472C30.5722 34.379 30.751 34.4531 30.9375 34.4531H35.1562C35.3427 34.4531 35.5216 34.379 35.6534 34.2472C35.7853 34.1153 35.8594 33.9365 35.8594 33.75C35.8594 33.5635 35.7853 33.3847 35.6534 33.2528C35.5216 33.121 35.3427 33.0469 35.1562 33.0469Z" fill=""/>
</svg>
